…
  mutate(
    models = map(data, ~glm(solved ~ victim_age + victim_sex + victim_race, family = "binomial", data = .x)),
    exp_results = map(models, tidy, exponentiate = TRUE, conf.int = TRUE, conf.level = 0.95)) %>%
  select(-data, -models) %>% 
  unnest(exp_results) %>%
  filter(term == "victim_sexMale") %>%
  select(city_state, 
         term, 
         "adjusted_OR" = "estimate", 
         "CI_lower" = "conf.low",
         "CI_upper" = "conf.high")
city_glm
```

    ## # A tibble: 47 × 5
    ##    city_state      term           adjusted_OR CI_lower CI_upper
    ##    <fct>           <chr>                <dbl>    <dbl>    <dbl>
    ##  1 Albuquerque, NM victim_sexMale       1.77     0.825    3.76 
    ##  2 Atlanta, GA     victim_sexMale       1.00     0.680    1.46 
    ##  3 Baltimore, MD   victim_sexMale       0.426    0.324    0.558
    ##  4 Baton Rouge, LA victim_sexMale       0.381    0.204    0.684
    ##  5 Birmingham, AL  victim_sexMale       0.870    0.571    1.31 
    ##  6 Boston, MA      victim_sexMale       0.674    0.353    1.28 
    ##  7 Buffalo, NY     victim_sexMale       0.521    0.288    0.936
    ##  8 Charlotte, NC   victim_sexMale       0.884    0.551    1.39 
    ##  9 Chicago, IL     victim_sexMale       0.410    0.336    0.501
    ## 10 Cincinnati, OH  victim_sexMale       0.400    0.231    0.667
    ## # … with 37 more rows
…
